…
```
## classPred
##  0  1 
## 82 22
```

```r
print(disco, n = 32)
```

```
## # A tibble: 104 × 4
##    deslocamento distanciaA distanciaF sumdistancia
##    <fct>             <dbl>      <dbl>        <dbl>
##  1 0                   2.2        1.4          3.6
##  2 0                   2.4        1.2          3.6
##  3 0                   2.6        2            4.6
##  4 1                   3.5        1.8          5.3
##  5 0                   1.3        1            2.3
##  6 1                   2.8        1.1          3.9
##  7 0                   1.5        1.2          2.7
##  8 0                   2.6        1.1          3.7
##  9 0                   1.2        0.6          1.8
## 10 0                   1.7        1.5          3.2
## 11 0                   1.3        1.2          2.5
## 12 0                   1.2        1            2.2
## 13 1                   4          2.5          6.5
## 14 0                   1.2        1            2.2
## 15 1                   3.1        1.7          4.8
## 16 1                   2.6        0.6          3.2
## 17 0                   1.8        0.8          2.6
## 18 0                   1.2        1            2.2
## 19 0                   1.9        1            2.9
## 20 0                   1.2        0.9          2.1
## 21 1                   1.7        0.9          2.6
## 22 0                   1.2        0.8          2  
## 23 1                   3.9        3.2          7.1
## 24 0                   1.7        1.1          2.8
## 25 0                   1.4        1            2.4
## 26 0                   1.6        1.3          2.9
## 27 0                   1.3        0.5          1.8
## 28 0                   1.7        0.7          2.4
## 29 1                   2.6        1.8          4.4
## 30 0                   1.5        1.5          3  
## 31 0                   1.8        1.4          3.2
## 32 0                   1.2        0.9          2.1
## # … with 72 more rows
```
…
