Cap. 3 Classificação | Caderno de exercícos Mestrado de computação aplicada
…
print(disco, n = 32)

## # A tibble: 104 × 4
##    deslocamento distanciaA distanciaF sumdistancia
##    <fct>             <dbl>      <dbl>        <dbl>
##  1 0                   2.2        1.4          3.6
##  2 0                   2.4        1.2          3.6
##  3 0                   2.6        2            4.6
##  4 1                   3.5        1.8          5.3
##  5 0                   1.3        1            2.3
##  6 1                   2.8        1.1          3.9
##  7 0                   1.5        1.2          2.7
##  8 0                   2.6        1.1          3.7
##  9 0                   1.2        0.6          1.8
## 10 0                   1.7        1.5          3.2
## 11 0                   1.3        1.2          2.5
## 12 0                   1.2        1            2.2
## 13 1                   4          2.5          6.5
## 14 0                   1.2        1            2.2
## 15 1                   3.1        1.7          4.8
## 16 1                   2.6        0.6          3.2
## 17 0                   1.8        0.8          2.6
## 18 0                   1.2        1            2.2
## 19 0                   1.9        1            2.9
## 20 0                   1.2        0.9          2.1
## 21 1                   1.7        0.9          2.6
## 22 0                   1.2        0.8          2  
## 23 1                   3.9        3.2          7.1
## 24 0                   1.7        1.1          2.8
## 25 0                   1.4        1            2.4
## 26 0                   1.6        1.3          2.9
## 27 0                   1.3        0.5          1.8
## 28 0                   1.7        0.7          2.4
## 29 1                   2.6        1.8          4.4
## 30 0                   1.5        1.5          3  
## 31 0                   1.8        1.4          3.2
## 32 0                   1.2        0.9          2.1
## # … with 72 more rows
…
# Adiciona as métricas no df
model_eval[nrow(model_eval) + 1,] <- c("modBayes01-prior 0.65 / 0.35", "lda", cm$overall['Accuracy'], cm$byClass['Sensitivity'], cm$byClass['Specificity'])

table(classPred)

## classPred
##  0  1 
## 82 22

print(disco, n = 32)

## # A tibble: 104 × 4
##    deslocamento distanciaA distanciaF sumdistancia
##    <fct>             <dbl>      <dbl>        <dbl>
##  1 0                   2.2        1.4          3.6
##  2 0                   2.4        1.2          3.6
##  3 0                   2.6        2            4.6
##  4 1                   3.5        1.8          5.3
##  5 0                   1.3        1            2.3
##  6 1                   2.8        1.1          3.9
##  7 0                   1.5        1.2          2.7
##  8 0                   2.6        1.1          3.7
##  9 0                   1.2        0.6          1.8
## 10 0                   1.7        1.5          3.2
## 11 0                   1.3        1.2          2.5
## 12 0                   1.2        1            2.2
## 13 1                   4          2.5          6.5
## 14 0                   1.2        1            2.2
## 15 1                   3.1        1.7          4.8
## 16 1                   2.6        0.6          3.2
## 17 0                   1.8        0.8          2.6
## 18 0                   1.2        1            2.2
## 19 0                   1.9        1            2.9
## 20 0                   1.2        0.9          2.1
## 21 1                   1.7        0.9          2.6
## 22 0                   1.2        0.8          2  
## 23 1                   3.9        3.2          7.1
## 24 0                   1.7        1.1          2.8
## 25 0                   1.4        1            2.4
## 26 0                   1.6        1.3          2.9
## 27 0                   1.3        0.5          1.8
## 28 0                   1.7        0.7          2.4
## 29 1                   2.6        1.8          4.4
## 30 0                   1.5        1.5          3  
## 31 0                   1.8        1.4          3.2
## 32 0                   1.2        0.9          2.1
## # … with 72 more rows
…
print(tipofacial, n = 32)

## # A tibble: 101 × 14
##    pacie…¹ sexo  grupo idade  nsba    ns   sba altfac proffac eixofac planm…² arcom…³
##      <dbl> <chr> <fct> <dbl> <dbl> <dbl> <dbl>  <dbl>   <dbl>   <dbl>   <dbl>   <dbl>
##  1      10 M     braq   5.58  132   58    36      1.2     0.8     0.4     0.4     2.5
##  2      10 M     braq  11.4   134   63    42.5    1.2     0.4     1       1       3.6
##  3      27 F     braq  16.2   122.  77.5  48      2.6     0.2     0.3     0.9     3.4
##  4      39 F     braq   4.92  130.  64    34.5    3.1    -1       1.9     1.3     1.6
##  5      39 F     braq  10.9   130.  70    36.5    3.1     0.6     1.2     2.2     2.3
##  6      39 F     braq  12.9   128   68.5  41.5    3.3    -0.6     1.1     1.2     2.1
##  7      55 F     braq  16.8   130   71    42      2.4     0.3     1.1     1.2     3.5
##  8      76 F     braq  16     125   72    46.5    1.9     0.5     1.4     0.6     3.5
##  9      77 F     braq  17.1   130.  70    44      2.1    -0.1     2.2     0.8     0.7
## 10     133 M     braq  14.8   130   80    52      2.8     0.2     0.4     1.1     1.8
## 11     145 F     braq  10.7   118.  67    43.5    1.2     0.7     1.7     1.5     0.9
## 12     148 F     braq  11.3   129   68    41.5    2.9    -0.7     2.2     1.3     2.2
## 13     165 F     braq  15     137   74    43      2.1    -0.3     1.3     1.2     2.5
## 14     176 M     braq   5.67  134   65    39      2.5     0.2     2.1     2.2     3.1
## 15     176 M     braq  13     130   72    48      2.2     0.2     2.9     2.4     4  
## 16     208 M     braq  13.8   130   67.5  43      0.9     1.5    -0.4     1.2     2.3
## 17     246 F     braq  11.8   129   67    43      0.8     1.1     1.5     0.3     1.4
## 18      27 F     braq   4.67  126   63    35      1.9     0.2     0.3     0.1     1.6
## 19      39 F     braq   3.67  131   61    32      3      -1.4     1.8     0.7     0.8
## 20      45 M     braq  22.7   133   77    46      1.7    -0.9    -0.6     0.3     2.7
## 21      49 F     braq  16.6   136.  71    42      1       0.5     0.1     0.2     2.7
## 22      52 M     braq  12.6   126.  69    41.5    1.4     0       0.4     0.5     2.5
## 23      63 F     braq   6.17  130.  63    37      1.9    -0.5     0.8     0.5     1.3
## 24      63 F     braq  15.7   132   72.5  43      1.9     0       2       0.4     0.3
## 25      68 M     braq  13.8   128   72    43      1.2    -0.6     1       1.1     2.3
## 26      76 F     braq   5.33  124   61    39.5    1.3    -0.3    -0.1     0.6     1.6
## 27      86 F     braq   5.25  126.  61.5  42.5    1.1     0      -0.1     0.2     2.7
## 28     109 M     braq  14.9   131   78.5  50      1.8    -0.4     1.1     0.8     1.3
## 29     145 F     braq   3.67  129   60    37.5    1       0       1.1     0.1     0.4
## 30     148 F     braq   4.25  127   61.5  34      1.9     0.2     1.6     0       1.4
## 31     155 F     braq   5.25  127   65    39.5    1.2    -0.5     1.2     0.2     1.4
## 32     155 F     braq  11.3   128   71.5  45      2.3    -0.3     0.7     0.4     2.2
## # … with 69 more rows, 2 more variables: vert <dbl>, sumfac <dbl>, and abbreviated
## #   variable names ¹​paciente, ²​planmand, ³​arcomand
…
